<?xml version="1.0" encoding="UTF-8"?>
<svg width="11px" height="8px" viewBox="0 0 11 8" version="1.1" xmlns="http://www.w3.org/2000/svg" xmlns:xlink="http://www.w3.org/1999/xlink">
    <!-- Generator: Sketch 51.2 (57519) - http://www.bohemiancoding.com/sketch -->
    <title>check2</title>
    <desc>Created with Sketch.</desc>
    <defs></defs>
    <g id="Page-1" stroke="none" stroke-width="1" fill="none" fill-rule="evenodd">
        <g id="Spot-exchange-element" transform="translate(-23.000000, -189.000000)" fill="#2EA6D6" fill-rule="nonzero">
            <g id="check2" transform="translate(23.000000, 189.000000)">
                <path d="M4.88872453,7.68603601 C4.39907222,8.17568832 3.60456883,8.17568832 3.11515283,7.68603601 L0.36723923,4.93812241 C-0.122413076,4.44870641 -0.122413076,3.654203 0.36723923,3.16478703 C0.856655216,2.67513472 1.65115862,2.67513472 2.14081093,3.16478703 L3.77802674,4.80176653 C3.9016214,4.92512488 4.10225596,4.92512488 4.22608695,4.80176653 L8.65918907,0.368664401 C9.14860507,-0.120987905 9.94310846,-0.120987905 10.4327608,0.368664401 C10.6678979,0.603801488 10.8,0.922831705 10.8,1.25533209 C10.8,1.58783247 10.6678979,1.90686269 10.4327608,2.14199977 L4.88872453,7.68603601 Z" id="Shape"></path>
            </g>
        </g>
    </g>
</svg>