<svg width="14" height="14" viewBox="0 0 14 14" fill="none" xmlns="http://www.w3.org/2000/svg">
<circle cx="7" cy="7" r="7" fill="#8D8D8D"/>
<path d="M9.91016 4.67578L7.58594 7L9.91016 9.32422L9.32422 9.91016L7 7.58594L4.67578 9.91016L4.08984 9.32422L6.41406 7L4.08984 4.67578L4.67578 4.08984L7 6.41406L9.32422 4.08984L9.91016 4.67578Z" fill="white"/>
</svg>
