<svg width="10" height="10" viewBox="0 0 10 10" fill="none" xmlns="http://www.w3.org/2000/svg">
<path d="M5 7.625L1.90625 9.5L2.72656 5.98438L0.0078125 3.61719L3.59375 3.3125L5 0.0078125L6.40625 3.3125L9.99219 3.61719L7.27344 5.98438L8.09375 9.5L5 7.625Z" fill="#FFAD5A"/>
</svg>
