<svg width="14" height="14" viewBox="0 0 14 14" fill="none" xmlns="http://www.w3.org/2000/svg">
<g clip-path="url(#clip0)">
<path d="M1.1333 7C1.1333 7 3.26663 2.73333 6.99997 2.73333C10.7333 2.73333 12.8666 7 12.8666 7C12.8666 7 10.7333 11.2667 6.99997 11.2667C3.26663 11.2667 1.1333 7 1.1333 7Z" stroke="#8E8E93" stroke-linecap="round" stroke-linejoin="round"/>
<path d="M7.00002 8.6C7.88368 8.6 8.60002 7.88366 8.60002 7C8.60002 6.11635 7.88368 5.4 7.00002 5.4C6.11637 5.4 5.40002 6.11635 5.40002 7C5.40002 7.88366 6.11637 8.6 7.00002 8.6Z" stroke="#8E8E93" stroke-linecap="round" stroke-linejoin="round"/>
</g>
<defs>
<clipPath id="clip0">
<rect width="12.8" height="12.8" fill="white" transform="translate(0.599976 0.599998)"/>
</clipPath>
</defs>
</svg>
